[0],[1],[2],[3],[4],[5],[6],[7],[8],[9]
-0.0211295,0.8274752,-0.38082287,1.6966493,0.20696844,-1.2321072,-0.20795597,0.07007088,-0.27133888,-0.49577504
1.0379932,-0.31635824,0.74112666,-1.0449219,-0.3962392,0.34096083,-0.33779338,-0.3443882,-0.26428056,1.8832501
0.31730726,0.4010961,0.5080646,0.55894816,-0.118175685,0.43411174,-0.73329675,-0.20795287,0.6388899,-0.92483413
0.21169202,-1.0431999,-0.6164589,-0.39372876,1.3601823,0.112408645,-1.0295644,1.0443398,0.5307481,0.6230909
0.65062743,-1.0450215,0.4493101,-0.19349575,0.586163,-1.0283774,-0.19900542,1.1367954,0.24076231,0.35577327
1.141481,1.2237451,1.1422273,1.1666244,0.7891076,1.3628815,-0.1271933,0.86938477,-0.40594545,0.33562607
-0.7411529,0.10053598,1.0420622,1.195535,0.7324195,-0.65613717,-0.26466292,-0.79722255,1.3566936,0.4242047
-0.74433887,-1.0870644,-0.8197114,-0.54022706,0.32088557,0.680813,-1.0439237,-0.4370088,-1.4708066,0.44724253
0.050846912,0.29268906,-0.6090775,-0.3589878,0.5216511,0.56135404,1.3364463,0.10621489,0.111249395,1.1984609
-0.48114938,-0.767821,0.31170452,-0.9613208,-0.59838456,-1.3153988,-0.019491455,0.34131652,-0.49299696,-0.51520836
-0.773224,-0.788844,0.12505,-0.44903156,-0.23653746,1.219645,0.72275037,-0.41273782,0.04524033,0.028729575
-0.14658014,-0.96116066,0.81495345,-0.88807344,1.041787,0.9303918,-0.6916551,-0.08919832,-0.7444533,-0.3939194
0.2116803,-0.20726363,-0.39496338,-0.59520996,0.29975682,0.1620909,-1.4406315,-0.047396876,0.6757341,-0.29421943
0.74810463,-0.041591782,-0.81854904,-1.1250852,0.68187666,0.73349166,-0.27678558,-1.1395956,1.4329963,1.1567742
-0.09933887,-0.96024406,-1.2936995,-0.88228434,0.76041013,1.1843495,1.8449632,-0.77175635,1.1137394,-0.28660056
0.03107379,1.4319761,-0.30530497,-0.16157703,1.152233,0.49757776,-0.6507616,-0.33053604,0.97442216,-0.06657623
0.25375476,0.42809495,-0.58934784,-1.1001713,-0.27389932,-1.3753934,-0.48489615,-1.1458244,-1.5664309,-0.10803553
-0.53231597,-1.1718185,0.31299525,-0.30743238,0.17633279,-0.64619815,0.40553308,0.40967417,0.4770141,0.13286614
-0.60287315,0.69628555,0.2964009,0.75506544,-0.8207654,-1.4177675,-0.3380235,-0.4995912,0.17608826,-1.3557003
0.85084593,-0.19159399,1.5449716,0.5277277,-0.8915489,-0.41995242,-0.5369625,-0.29063505,0.59665424,0.40428826
0.16461842,-0.3884352,1.4568746,8.271704E-4,1.1915666,-0.34943622,-0.806365,0.042768862,0.7627632,-0.6382412
0.06147917,-0.69613206,0.33904865,-0.16769695,-0.45804402,-0.39311886,0.6616918,0.96756625,0.05473721,0.48321185
0.45078173,0.36545134,-0.15253265,0.8052341,0.88715774,1.3083415,-0.72372276,0.81891716,-0.7337227,1.0222028
-0.8212059,-0.43453586,0.40750557,0.9201336,0.35897464,-0.512901,-0.40299854,-0.7209407,0.41976893,0.04769706
0.6007276,-0.82485896,-1.134054,0.97350836,0.043061186,1.2222888,-0.5673043,-0.08590129,-0.79453844,0.55169475
-0.9515834,-0.3782137,-0.8560014,-1.03138,1.3680857,-0.8999855,-0.43260422,0.8796126,-2.0615396,1.4458946
0.59986424,-0.53627974,-0.49539784,0.04607564,-0.54567707,1.5186322,0.34507746,1.0407215,0.860378,0.57621694
0.79445404,-0.5635488,-1.5842503,0.83301836,1.3183317,-0.7539904,-0.24117592,-1.3574315,1.2317724,1.2262068
-0.92168397,-0.43519822,0.38530663,0.03963507,0.95564467,-0.5503773,-0.20379557,0.7107843,0.244196,-0.9258183
0.4552359,0.35361892,-1.2202597,0.49436042,-0.97045535,0.022065805,0.7539172,0.4242333,-0.29742745,0.277598
-1.5027989,-0.4495369,-0.7518325,0.30197108,0.5350455,1.8830522,0.20086506,0.59989935,0.65899587,-1.2437937
-1.0186918,1.3889997,-1.1659923,-0.4947787,0.8197807,-0.21733834,0.24068111,0.9334014,1.3169601,0.39243954
0.6805779,-0.15284877,-0.7840807,0.20122382,0.83808774,-0.38914043,0.57952285,0.5581844,0.023947807,-0.36300388
1.071175,0.36810923,-0.38438168,-0.27178928,0.022254983,-1.1404257,1.0909592,0.110615574,-0.7859076,0.35696596
0.48026094,-0.53966945,-0.3087989,-0.8086814,-0.04786293,-1.3251361,0.091881156,-1.2454392,-0.9943174,-0.5964848
0.722388,-0.4231319,-0.48091975,0.5133903,-0.28701386,0.44852582,1.4881767,-1.0127683,1.5914493,0.77263767
0.8089246,-0.5186786,-0.006041238,-0.83948225,0.38252628,0.6369577,0.25603473,-0.76476324,0.12117631,0.57480097
-0.45286962,-0.56383824,-0.45045236,0.82000303,0.6095045,-0.6098848,0.5501611,1.3458909,0.45571238,-0.8181844
1.9907302,-0.35786578,0.4648951,-0.30159783,-0.7581761,-0.16685764,-1.0572798,-0.7935978,0.6806862,-1.0080171
0.18093878,0.35305676,-0.635266,-0.8387462,-0.47425863,0.9029008,-0.14410831,-0.47803935,0.96619254,-1.4096189
-0.6732526,0.058290113,-0.6317418,-0.58141035,-0.8719892,-1.047599,-0.62483823,-0.9341555,-0.41978237,-1.2436192
-0.101460546,0.6277534,0.44803226,0.54413944,1.2088392,-0.36835107,-1.0435097,-2.161605,0.56035554,1.6831748
-0.10791822,0.5686061,-1.0109086,0.7665618,0.05675872,0.62378263,-0.407783,0.5421073,0.37288243,0.9968008
0.94073856,-1.5236534,1.4417698,-1.2521056,0.34825808,-0.47386676,1.191435,-1.4217709,-1.036158,-0.038241144
0.4915264,0.6200756,-1.3498739,-1.124269,-1.4208862,-1.6656278,-1.3245524,-0.9302076,-0.2257755,-0.48120138
0.015223762,1.3080633,0.5080306,0.8802513,0.72730666,-0.25228858,0.951608,0.9120212,1.0264585,0.8777872
-0.3080035,-0.24459113,-0.1629407,0.5182345,0.988556,-0.44614893,0.24406053,-0.25887433,0.9644509,-0.41195592
-0.5097512,-0.9854329,-0.5308892,-0.5316328,0.32784528,0.14668429,-0.4173324,0.16543764,-0.30013487,-0.8379303
-0.46712953,-0.20198856,0.028449059,-0.59689355,-0.5864466,-0.5770099,0.18594654,-1.2645091,-1.7175981,0.1841899
-1.3440869,0.34700674,0.26053238,-0.88143367,-0.58846045,-0.28763294,-0.46370772,-1.2166606,-0.5689857,-0.31226093
-1.4613425,0.39261857,-1.0176368,0.3729033,-0.595339,-1.3933353,-1.3913004,0.021051371,-1.5535625,-0.64200175
-0.04992643,-0.54787505,-0.24848405,0.48132354,-0.05180877,0.73187625,0.6663037,-0.16418372,-0.08799474,-0.42840338
0.76033366,-0.60736334,-0.5631645,0.3712385,-0.73252875,-1.1355853,-0.9167175,0.43585056,-0.7530717,0.5870793
0.21292165,-1.5546216,0.20562652,1.4421039,-1.5634434,0.45215264,-0.48480275,0.6603394,1.2947383,0.34860015
-0.12555245,0.63535935,0.27912968,0.42495197,-0.6024329,-1.2805011,0.25568616,-0.3922912,0.6538861,0.1736123
1.5131364,0.56088066,-1.8361223,-0.6255902,-0.4242898,-1.2405292,-0.14989583,0.9792035,-0.65510786,-0.3184733
0.03587196,-0.5454197,1.0346049,-0.9876801,0.37159166,-1.0892363,1.3243853,0.003865397,1.2274618,0.72262233
-0.8729791,0.6307744,-0.3260935,0.4418289,0.04312033,-1.4155489,-0.27799413,-0.6417877,-0.6562606,-1.2711246
0.09985395,-0.83433056,0.23971894,0.8305379,-0.74106634,0.69200134,-0.17041278,-0.15215804,-1.2745152,0.46329647
-0.26293948,0.6983019,0.3408698,0.688425,1.226132,0.7547595,-0.24644408,-0.44383195,-0.11100288,-1.7477368
0.1494162,-0.122825004,-0.34335294,0.4890873,0.25880602,0.09247112,1.412562,0.15722027,0.2666729,1.1984485
-0.1392698,0.72174484,1.2098155,1.2430711,1.5029705,0.009251039,0.5223241,0.38830584,0.11004821,0.21165848
0.07981759,-1.2970749,0.48295182,1.0967344,0.513745,-0.7879179,-1.0260712,0.5277869,-0.87007385,-0.648073
-0.5744462,-0.96197623,-0.98232734,-1.4237965,-0.23176159,-1.2302547,-0.470784,-1.1664662,-0.4333196,-1.1785725
