[0],[1],[2],[3],[4],[5],[6],[7],[8],[9]
0.38465956,-0.44587448,-0.86010313,0.5889328,0.88738567,-0.15192765,-0.41896647,0.020082818,0.10464867,0.6923755
0.82509714,0.0063806847,0.6458512,0.74276257,1.0866554,0.06991173,-0.22435386,0.26346517,0.8254152,-0.9641538
0.5090051,0.3068501,0.35738447,-1.1586349,-0.05965944,-1.6172276,-0.30416116,0.85129565,0.30796573,-0.6832787
0.12507245,-0.10295049,0.31591108,0.5720415,-0.30008504,0.031554542,-0.23577283,-0.17193362,-0.72802866,0.7142248
0.33652213,0.34361523,-0.019970244,-0.727269,0.37077576,-0.69449973,-0.694268,-0.52501035,-0.3541628,0.383685
0.5011001,0.325853,0.53459567,0.7609157,-1.0368127,-0.08938575,0.5418255,0.69746864,0.54755265,-0.99533516
-0.38332948,0.11216318,0.09432438,0.05869927,0.5810986,-0.27090475,-1.0629655,0.17940359,0.5974345,-0.717144
-1.148513,1.0951375,0.38296407,0.30046746,-1.182954,0.5794606,0.6132154,-0.38844183,0.4709013,0.35467547
-0.68974984,-0.542418,-0.8339797,0.2759354,-0.09942559,-0.9786075,0.014955503,-0.6363881,0.82806563,-0.24579792
0.1746158,-0.60368145,0.48377606,-0.057268377,0.49545002,1.0055201,-0.08804865,-0.5089118,-0.79271734,0.26377183
0.14709373,-1.3545166,-0.10649328,-0.13345405,0.674385,0.1337194,-0.14072539,0.42026788,0.65788484,0.82284844
0.34592536,0.15659684,-0.48841092,-0.072162345,-1.0243279,-0.29881033,-0.96840423,-0.15481071,-1.0533539,-0.063800186
0.30460426,-0.32931405,-0.8325695,-0.13928314,-0.06319591,0.35513473,0.6354933,-0.0770087,-0.33541107,0.300951
-0.933271,-1.1408114,-0.56544906,0.22192226,0.6949264,-0.23090886,0.5549916,1.0555468,-0.65435845,-0.6562967
0.24385902,0.68532085,-0.4695475,-0.2116771,-0.22419417,-0.47298637,-0.14048034,0.7166618,0.9746085,-0.27077377
-0.31553558,0.69564086,-0.10131842,1.473319,0.29847783,-0.763677,-0.95609677,0.09390997,-0.83332425,-0.6392334
-1.1259485,0.16329245,-1.1480031,0.5370437,0.08853387,1.0007032,0.2209762,1.079482,-1.1679168,-0.3632291
-0.47849998,-0.79602176,-0.6140635,-1.2127775,0.7341048,-0.23668753,-0.8992597,-1.0898497,0.017133703,-0.8578591
0.089864954,-0.051637314,-0.33643445,-0.982351,-0.6010546,-1.1559292,-1.357392,0.6557725,0.5816145,1.0762825
-1.2811083,0.10844101,-1.0410575,-0.077855386,-1.0128472,0.32195652,-1.0706005,-0.06912287,0.5216714,-0.89429855
0.048534594,0.63440156,0.26186955,-0.1455048,-1.6297315,0.0864972,0.538862,1.1381563,-0.59234387,1.2277431
-0.58303714,-1.3455865,0.013982429,-1.3769623,-0.6213941,-1.3733736,-0.18328884,-0.7462362,-1.101726,-0.49351957
-1.0495269,-0.7578682,-0.14672153,-0.8690784,-0.833918,1.2890209,-0.18962015,-0.76488924,1.0319402,0.27640408
-1.0913979,1.3575739,1.0996054,0.738797,0.33783862,-1.2724656,-0.8401151,0.63569146,0.14564702,-0.33007267
-1.0143998,-0.6916513,-0.69027627,0.4711291,0.75340855,0.7359668,-0.70662487,-0.53800356,-1.1596245,0.76844794
0.032253258,0.24044721,0.459666,-1.0334058,-0.51742876,-1.2283976,-0.8537204,-0.28317595,0.4574686,1.3577045
-0.5092558,0.42587182,0.76661414,-1.2736126,1.2052311,-0.2135637,-0.12584127,-0.62319714,-0.85156655,0.28240758
-0.35908166,0.18148127,0.5631752,1.1345842,1.0008246,1.2853452,-0.48994592,1.2413304,0.50502384,0.7374682
0.732478,0.4919996,-1.1214579,-1.1187073,0.015080662,0.2558845,1.2639307,-0.5797009,-0.11524177,0.6199353
0.79206157,1.4663664,-0.30183962,-1.0813285,0.76044005,0.4368347,0.06560094,1.189404,-1.0375199,-0.5762399
0.29220703,1.2799449,-0.12527381,-0.8179049,-0.6454276,-0.4154926,0.4984906,-0.14734897,1.1184025,-0.266776
-0.13142039,0.035024345,-0.16840644,-1.5070074,-0.685946,-0.95951074,0.24264665,-1.3632416,-0.54025924,-1.4029651
-0.44853023,-0.6490016,-0.614897,-0.60954905,0.37913898,0.011859473,0.111899145,0.39321032,0.85231423,0.41835576
0.27438918,1.2111042,0.75430036,1.0135988,-0.084449634,-0.95914793,0.7505711,-2.1148357,-0.31595877,-0.147668
1.0302382,-0.4992016,0.9816952,0.6013343,0.6015714,-0.43856564,0.4973649,-0.4857138,0.072258316,0.75328183
0.5011769,-0.03390561,0.6166985,-0.67625153,-0.3205227,0.75305337,-0.44421595,-0.70252824,-1.2082125,1.2143767
0.82863504,0.4662744,-1.3038754,0.34495732,0.9297896,-0.46792972,-0.5708075,-0.014021307,0.41075972,0.38555014
-0.98743033,-0.5403016,-0.8061639,-0.5713006,1.276844,-0.9913125,1.002765,0.11261948,-1.1083537,-0.8154345
-0.24930702,0.6206017,0.20190062,-0.26863143,0.7320254,0.2893429,0.64377064,-0.497402,0.6896541,0.6707165
-0.7105481,-0.8866496,-0.09962217,-0.97612226,0.30194497,-0.549862,0.40454698,0.2681399,0.2705362,-0.64042485
0.057324264,0.5717336,0.17532888,0.0131112775,-0.65376717,-0.09379435,-0.5607933,0.4455747,0.8986464,0.62537247
0.24903913,0.6670135,0.9491665,0.9466688,-0.6592084,0.6676826,0.98863906,0.2291994,0.20344357,0.2606705
0.51437116,-0.3865347,0.31904215,-0.15564692,-0.27970454,-0.6664128,0.85077536,0.37744534,0.1695667,-0.6275125
1.1451261,0.7098432,-0.48964602,0.378321,0.91472995,0.81796706,0.17819019,0.88129526,0.20857923,0.2437025
0.2901361,-0.12558489,-0.6756304,-0.7634183,0.2928758,-0.29188997,-0.6454043,-0.13804314,-0.9381617,1.8260547
0.5142457,0.33626205,0.16129775,0.28691188,-0.1311001,1.3867849,0.8794468,1.1650547,-0.30973184,-0.596335
0.8028755,0.41039777,-0.47317466,0.096978255,-0.431446,0.36941305,-0.7125222,0.70849395,0.38788012,-0.8313053
1.0586791,0.85446507,-0.9832818,0.39579573,-0.6344013,0.49647367,-0.25913537,0.105244294,0.025889035,0.02277384
0.008295645,0.4324357,-0.5337702,0.6818855,0.8118841,0.43458644,0.23709196,-0.021337241,0.2513865,-0.7300673
-1.2068228,-0.50679874,-0.39077094,-0.71112674,-0.8881961,-0.8181831,0.25990713,-1.1153373,-1.1471089,-0.78102404
0.68651646,-0.34187558,0.5794318,-0.66567683,-0.3801796,0.0014602699,0.036404397,0.86707246,-0.56663483,0.4503672
-0.09293156,-0.65544647,0.7589374,0.87911355,-0.7124911,0.47381908,-0.6058991,-0.09143966,-0.33406094,-0.27827287
-0.599139,0.08682209,0.7488583,-0.19040938,-0.23903343,1.4406465,0.754924,0.15017551,-0.3623651,-0.8376786
-0.9019407,0.57914054,-0.65924245,-0.069722064,0.98486775,0.18060558,-0.02304385,0.31219012,0.8097724,0.38753387
-0.105752245,-0.9488413,0.11259234,0.8913295,0.7462198,0.021307329,-0.060927883,-0.015216885,-1.3445457,0.7873436
-0.8193338,-0.5147557,-0.04581607,0.23135696,-0.61775076,-0.056306977,-0.7507434,0.5739875,-0.5666053,-0.74096626
0.9375389,-1.3588324,-0.43028438,-0.052919127,-0.8115848,0.19763866,1.0028027,-0.042214125,0.7461008,-1.4679203
0.3633884,-0.7145916,-0.3419251,-1.2867241,-0.44391316,-0.20161954,-0.2307706,0.5330653,0.61007285,-0.8222152
-0.56396693,0.09329327,0.42855993,0.83568823,0.23336343,-0.21592796,0.19468537,0.34190091,0.41503882,0.12114655
0.096964136,0.38845754,0.8367318,-0.47300294,-0.09897631,0.6217127,-1.631027,-0.06359768,1.1894953,0.6584174
0.41988447,-0.36338714,-0.5004388,-0.13678682,-0.52800226,0.8684903,1.068218,0.046131752,-0.79249793,1.2162042
-0.6578575,-1.3894774,-1.3949847,-0.6380976,-0.37487504,-0.110108055,0.4063841,-0.3530025,-1.1168827,-0.19555071
0.12685949,-0.21605442,0.14524823,-0.7136146,-0.5534739,0.45448852,-0.7519862,-0.23985946,0.37973058,-0.20560756
0.7332792,-0.004071328,-0.45778245,1.1459588,0.4461781,-1.1247251,-0.5539247,0.4288495,-0.2519245,-0.056536987
