[0],[1],[2],[3],[4],[5],[6],[7],[8],[9]
0.7763362,1.1058713,0.09483757,1.6153,-0.32339117,0.06526644,1.4547551,1.3048084,-0.037954528,0.24113785
-0.5324202,-0.88192195,0.9438805,-0.7127678,-0.5097069,0.23319481,-0.36246416,-1.2128118,-0.020113438,1.4133575
0.83055913,1.5346842,-0.37948763,0.48395208,1.0751942,0.5266429,0.15706058,-0.10413565,0.9708765,1.5824274
0.72728556,-1.6221334,-0.333736,0.9616366,-1.459117,1.1405692,1.0065514,-0.7986962,-1.1010296,-0.6285001
0.6490951,-0.006103878,-0.16100037,0.6255187,1.449585,0.9833121,-0.22351432,-0.048385974,-0.054348942,0.07641846
-1.2441988,0.053655595,0.6031235,-1.018842,-0.28488076,-1.0166367,-0.5433036,-0.94355047,-1.0525081,-0.87811446
0.09457954,1.4936467,-0.18507649,1.0619457,0.60254043,0.40322858,-0.47227356,-0.19997287,0.9007325,-0.50192606
-0.5904375,0.1326529,-0.6164522,0.3974634,1.0679406,1.2536016,0.64433175,-0.121804215,0.23084792,-0.47434926
0.6946647,1.1686612,-0.6591799,-0.089767255,0.22186603,0.253938,0.58708864,-1.0113486,-0.34271356,0.6636878
-1.158539,-1.1674432,-0.05142245,-0.35865423,-0.4407441,-0.43377826,0.38354054,-0.5417808,-1.1085461,-0.15361457
-0.8895043,-1.3417344,0.26076105,-0.44269204,1.2389452,-0.7065434,-0.03705207,-0.15381508,0.9947508,0.5007702
1.0757588,-0.2685406,-0.5533767,-2.0099583,-0.34182334,-1.142614,1.2489648,0.42002508,1.0140278,0.30933002
0.43202162,1.5336043,0.29556575,1.3957572,0.75389606,1.3521558,0.07916692,1.559959,0.19765684,0.26614222
-0.842329,-0.78241503,0.44628227,0.76134515,-0.45736992,0.8997209,-0.56937635,0.85591483,-0.47758368,-0.5170196
-0.007945377,0.71984833,0.16776705,-0.0804495,0.7877853,0.010089729,0.13670014,0.86754346,0.005914115,0.7702767
1.3025932,-1.4230874,1.0366516,-0.79100907,-0.45852336,0.58625555,-0.40222156,-0.51550037,-0.53469193,-1.6443541
0.4439017,1.1261194,0.0083310185,0.6806816,-1.1623116,1.0673711,0.36537042,0.74964297,0.10031665,0.85363156
1.9855443,0.86080515,-1.2037089,-0.045409635,0.71971405,0.52530247,-2.1923027,-1.3958185,-0.99709594,1.8895842
0.6208843,-0.00299788,-0.70156527,0.16090396,-0.5609384,1.6737945,-0.5729451,0.38734582,-0.13105026,0.00641867
0.23174153,-0.23724397,0.082755506,-0.047838487,-0.21788695,-0.08729984,-0.055994682,-0.571075,-0.050546892,-1.0506681
-0.8199658,-0.36305448,-0.3131656,-0.052300744,-0.7580885,-0.36496207,-0.6656563,0.0910886,-1.5388649,-0.23428923
-0.6257315,0.3569968,1.2284179,-0.838479,-0.52234644,0.69036967,1.018102,-0.26009563,-1.1266189,0.85658556
-0.23343274,0.25719318,-0.45151988,0.67965573,-1.0894021,0.734096,-1.5627981,0.91817576,1.1367356,0.6609957
-1.0138097,0.24521017,-1.0133946,-3.522291,0.70906085,1.9401264,-0.03376366,0.58133686,0.75439,-0.08501528
0.27372637,-0.031869393,0.31134665,0.42445514,-0.68676615,0.62467414,0.7013263,0.03293846,-1.0619701,-0.36489367
-0.27333525,0.31430557,-0.652313,0.24690366,-0.09261526,-0.8378376,0.75220114,1.1794319,0.2796547,-1.1599327
0.6342557,0.80976546,0.7070301,0.6884831,-0.50423974,-0.19064526,1.073895,0.5418509,0.16325252,0.8887825
-0.29422587,-0.79864097,0.32677037,-1.5162141,-0.66352135,-0.80775815,-1.0764546,0.3857232,-0.034612454,-0.55632055
-0.5696783,0.26737973,-0.44412693,-1.1720204,0.2297664,-0.042501003,0.065414555,-0.52406526,0.007569961,-0.44956028
0.99476314,-0.99111205,1.2345346,-0.65286636,0.64476985,1.3799287,0.7405285,-0.014492938,0.065735586,0.6683469
-0.8344376,-1.0254289,-1.0460424,-1.199948,-0.41593778,-1.5532982,-1.3181701,-0.9068791,-0.2492327,0.14556117
0.15477504,1.2235991,1.3962871,0.9955695,-0.4743632,-1.1865109,1.3553598,-2.2706518,1.8126866,0.68344456
-0.4844049,-0.7296333,-1.4207511,0.6406596,-0.04123523,1.6465718,0.4168034,-0.59741527,-0.9690741,0.7920526
1.388928,-0.5271125,-0.32456163,0.09274587,0.5190955,-1.1505066,-0.24898013,-0.6277072,-0.6671785,-0.06866949
-0.979824,-1.0873219,-0.76233035,1.4568813,0.88289946,-1.7103428,-0.27637008,-0.020297257,-2.0091248,2.4152527
-0.16327626,0.83788455,-0.17776375,-0.5877957,0.5728024,0.23475483,-0.097825594,0.5227145,-0.109268986,-0.71464866
0.43676165,0.4923562,-0.6259072,-1.134661,2.4794695,-0.32060906,0.6446458,-0.7014391,-1.8335971,-0.80678254
0.53640145,1.1802728,-0.07113539,0.13473663,-0.72783077,-1.1020478,0.44578338,-0.45915326,-0.70031536,-1.1313066
0.8416149,0.2619002,0.86325455,0.08153309,0.08396392,0.24159335,-0.43723,1.1675876,1.7094576,0.38892567
-0.67448485,0.23896736,-0.44260022,0.18961795,0.054282084,0.9743903,0.023227956,-0.0011996712,0.27619419,-0.96707845
-1.0321255,0.5211712,-0.931768,0.8147403,-0.9680106,-0.9358552,-1.614266,0.18788394,0.12891752,-0.98570603
-0.15591773,-0.078772195,-1.202694,-0.33740014,0.022441233,-0.88469243,-0.0400833,-0.035752434,-0.076940365,-0.6102972
-0.33434796,-0.29776546,2.63476,1.060404,-0.007795697,0.7959924,-1.2969753,-0.29620218,-0.051007606,-0.010282826
0.7044998,-0.54891264,-0.7470748,0.30227342,0.528246,0.4182683,-0.1453826,-0.15324846,0.37931654,-0.14157367
-0.22027282,0.7588577,0.7339434,1.658853,0.3267547,-0.027799819,0.5641912,-0.32140118,-0.44205403,-0.49052688
0.075747065,0.8580305,0.24632789,1.881649,-0.10930167,0.28741667,0.25705123,-0.27569136,-0.4635584,0.7585315
-0.6184868,-0.110408776,0.30480477,-0.29747868,0.67214316,0.434172,-0.79835725,-1.1629909,0.5177111,-1.7594025
0.99606663,0.35221696,-0.42087626,-0.98553354,-0.17630234,1.2610762,0.96133524,-1.3021221,0.78509086,1.1868387
0.122361,-0.7814972,0.7300821,-1.3884332,-0.67969686,-1.4306805,-0.22117114,-0.9222882,1.6490414,0.40800515
0.3895707,-0.97498745,-0.4832777,0.3481956,0.1821727,0.27048185,-0.8564804,-1.2244741,-1.814204,-0.83432466
0.2592402,-0.44785273,-0.52047825,-0.77624404,-0.15152061,-1.6444592,-0.08522063,-0.09356563,-0.294636,-0.9973656
-0.15997408,0.7264505,-0.14914988,0.4054745,1.2637558,-0.22065245,0.25848988,-0.28640658,0.11696391,1.0730492
-0.3075997,1.1758429,0.6284709,0.15787902,-1.3382294,0.70866704,0.9742481,-1.1445261,1.6626143,-1.1206725
-0.23884392,-0.49221587,-1.0154698,0.33139265,0.3086697,-0.7862877,-0.66384315,-0.20119657,-0.7198131,-0.51363295
0.6395618,0.10725039,0.37709954,-0.7641783,0.06103228,0.8737651,0.20403582,-0.16919109,-0.5737088,-0.121516615
0.93923825,-0.09941829,-0.016328882,0.64999413,-1.0482452,1.0913968,0.72748303,-0.37388143,-1.3775457,0.08603936
-0.44402802,0.35611185,0.08660642,0.13709725,1.4866611,0.86812156,0.70514506,0.98082095,-1.2957947,0.28327173
-0.5842843,0.09273159,1.1442037,1.9334514,0.84205145,-0.0900884,1.5102174,0.9176526,0.093763374,0.44714284
0.39802238,-1.3773205,-0.80363226,0.6118426,1.132869,-0.432369,0.34851512,-1.3895556,1.8456908,1.7086606
0.38680544,1.002482,-0.2051407,1.2427775,0.7927073,0.9971476,0.14509507,-0.21882476,0.29593897,-0.4169919
1.2491875,0.9281699,-0.47313493,-0.2662856,1.0472428,1.1450124,-1.9044349,0.598869,0.8726249,-0.7556215
-0.9750292,-0.17024948,-0.07342565,-0.28277993,0.43547174,-0.29352883,0.46258253,-0.5064465,-0.09876092,1.8724977
0.8311973,0.113328665,1.1644503,-0.28354988,-0.14728186,0.15382028,0.42015687,0.8196774,0.73671645,1.4582881
-0.4559134,0.24145077,-0.14715083,0.1891676,0.96909827,1.3497919,-0.14929248,0.13439003,0.87829936,1.1094621
